//Maya ASCII 2022 scene
//Name: CaveWall.ma
//Last modified: Sun, Aug 29, 2021 01:47:55 AM
//Codeset: 1252
requires maya "2022";
requires "mtoa" "4.2.1";
currentUnit -l centimeter -a degree -t film;
fileInfo "application" "maya";
fileInfo "product" "Maya 2022";
fileInfo "version" "2022";
fileInfo "cutIdentifier" "202102181415-29bfc1879c";
fileInfo "osv" "Windows 10 Home v2009 (Build: 19043)";
fileInfo "UUID" "6676C8F3-423B-59AD-4ED3-368BB0A55735";
createNode transform -s -n "persp";
	rename -uid "6F9D3BC4-4B0D-07FC-CEFB-7089C508BCA8";
	setAttr ".v" no;
	setAttr ".t" -type "double3" 1.3925061675288868 5.0479225030853314 30.665367009072199 ;
	setAttr ".r" -type "double3" -9.3383527296101025 2.6000000000022205 7.4621067527963712e-17 ;
createNode camera -s -n "perspShape" -p "persp";
	rename -uid "0F6C198D-403A-5BEE-A4BE-128C12B0598F";
	setAttr -k off ".v" no;
	setAttr ".fl" 34.999999999999993;
	setAttr ".coi" 31.109248284469857;
	setAttr ".imn" -type "string" "persp";
	setAttr ".den" -type "string" "persp_depth";
	setAttr ".man" -type "string" "persp_mask";
	setAttr ".hc" -type "string" "viewSet -p %camera";
	setAttr ".ai_translator" -type "string" "perspective";
createNode transform -s -n "top";
	rename -uid "68AF3CA7-489F-8E82-8482-7B9AD3C5097E";
	setAttr ".v" no;
	setAttr ".t" -type "double3" 0 1000.1 0 ;
	setAttr ".r" -type "double3" -90 0 0 ;
createNode camera -s -n "topShape" -p "top";
	rename -uid "07C42D66-4C8C-C335-0690-6BA163EBCAAE";
	setAttr -k off ".v" no;
	setAttr ".rnd" no;
	setAttr ".coi" 1000.1;
	setAttr ".ow" 30;
	setAttr ".imn" -type "string" "top";
	setAttr ".den" -type "string" "top_depth";
	setAttr ".man" -type "string" "top_mask";
	setAttr ".hc" -type "string" "viewSet -t %camera";
	setAttr ".o" yes;
	setAttr ".ai_translator" -type "string" "orthographic";
createNode transform -s -n "front";
	rename -uid "21F76A73-41EE-6F79-4094-AA81C474ABB5";
	setAttr ".v" no;
	setAttr ".t" -type "double3" 0 0 1000.1 ;
createNode camera -s -n "frontShape" -p "front";
	rename -uid "A8894548-4B5C-6D30-DBB4-E089CF5844C0";
	setAttr -k off ".v" no;
	setAttr ".rnd" no;
	setAttr ".coi" 1000.1;
	setAttr ".ow" 30;
	setAttr ".imn" -type "string" "front";
	setAttr ".den" -type "string" "front_depth";
	setAttr ".man" -type "string" "front_mask";
	setAttr ".hc" -type "string" "viewSet -f %camera";
	setAttr ".o" yes;
	setAttr ".ai_translator" -type "string" "orthographic";
createNode transform -s -n "side";
	rename -uid "FF640902-481F-4F30-1F7E-60A98D518454";
	setAttr ".v" no;
	setAttr ".t" -type "double3" 1000.1 0 0 ;
	setAttr ".r" -type "double3" 0 90 0 ;
createNode camera -s -n "sideShape" -p "side";
	rename -uid "65A78B71-43B9-9491-4532-2083324EBED7";
	setAttr -k off ".v" no;
	setAttr ".rnd" no;
	setAttr ".coi" 1000.1;
	setAttr ".ow" 30;
	setAttr ".imn" -type "string" "side";
	setAttr ".den" -type "string" "side_depth";
	setAttr ".man" -type "string" "side_mask";
	setAttr ".hc" -type "string" "viewSet -s %camera";
	setAttr ".o" yes;
	setAttr ".ai_translator" -type "string" "orthographic";
createNode transform -n "pPlane1";
	rename -uid "9A7279D0-480E-CF67-CA55-5DBDD003BFC1";
	setAttr ".t" -type "double3" 0 3.968524800206422 0 ;
	setAttr ".r" -type "double3" 90 0 90 ;
	setAttr ".s" -type "double3" 8 1 8 ;
	setAttr ".rp" -type "double3" 0 0.34447390586137772 0 ;
	setAttr ".rpt" -type "double3" 0 -0.34447390586137772 0.34447390586137772 ;
	setAttr ".sp" -type "double3" 0 0.34447390586137772 0 ;
createNode mesh -n "pPlaneShape1" -p "pPlane1";
	rename -uid "F48016CD-4F65-E8B9-61F0-ED8579AF779A";
	setAttr -k off ".v";
	setAttr ".vir" yes;
	setAttr ".vif" yes;
	setAttr -s 5 ".gtag";
	setAttr ".gtag[0].gtagnm" -type "string" "back";
	setAttr ".gtag[0].gtagcmp" -type "componentList" 1 "e[210:219]";
	setAttr ".gtag[1].gtagnm" -type "string" "front";
	setAttr ".gtag[1].gtagcmp" -type "componentList" 10 "e[0]" "e[2]" "e[4]" "e[6]" "e[8]" "e[10]" "e[12]" "e[14]" "e[16]" "e[18]";
	setAttr ".gtag[2].gtagnm" -type "string" "left";
	setAttr ".gtag[2].gtagcmp" -type "componentList" 10 "e[1]" "e[22]" "e[43]" "e[64]" "e[85]" "e[106]" "e[127]" "e[148]" "e[169]" "e[190]";
	setAttr ".gtag[3].gtagnm" -type "string" "right";
	setAttr ".gtag[3].gtagcmp" -type "componentList" 10 "e[20]" "e[41]" "e[62]" "e[83]" "e[104]" "e[125]" "e[146]" "e[167]" "e[188]" "e[209]";
	setAttr ".gtag[4].gtagnm" -type "string" "rim";
	setAttr ".gtag[4].gtagcmp" -type "componentList" 28 "e[0:2]" "e[4]" "e[6]" "e[8]" "e[10]" "e[12]" "e[14]" "e[16]" "e[18]" "e[20]" "e[22]" "e[41]" "e[43]" "e[62]" "e[64]" "e[83]" "e[85]" "e[104]" "e[106]" "e[125]" "e[127]" "e[146]" "e[148]" "e[167]" "e[169]" "e[188]" "e[190]" "e[209:219]";
	setAttr ".pv" -type "double2" 0.5 0.5 ;
	setAttr ".uvst[0].uvsn" -type "string" "map1";
	setAttr -s 121 ".uvst[0].uvsp[0:120]" -type "float2" 0 0 0.1 0 0.2 0 0.30000001
		 0 0.40000001 0 0.5 0 0.60000002 0 0.69999999 0 0.80000001 0 0.90000004 0 1 0 0 0.1
		 0.1 0.1 0.2 0.1 0.30000001 0.1 0.40000001 0.1 0.5 0.1 0.60000002 0.1 0.69999999 0.1
		 0.80000001 0.1 0.90000004 0.1 1 0.1 0 0.2 0.1 0.2 0.2 0.2 0.30000001 0.2 0.40000001
		 0.2 0.5 0.2 0.60000002 0.2 0.69999999 0.2 0.80000001 0.2 0.90000004 0.2 1 0.2 0 0.30000001
		 0.1 0.30000001 0.2 0.30000001 0.30000001 0.30000001 0.40000001 0.30000001 0.5 0.30000001
		 0.60000002 0.30000001 0.69999999 0.30000001 0.80000001 0.30000001 0.90000004 0.30000001
		 1 0.30000001 0 0.40000001 0.1 0.40000001 0.2 0.40000001 0.30000001 0.40000001 0.40000001
		 0.40000001 0.5 0.40000001 0.60000002 0.40000001 0.69999999 0.40000001 0.80000001
		 0.40000001 0.90000004 0.40000001 1 0.40000001 0 0.5 0.1 0.5 0.2 0.5 0.30000001 0.5
		 0.40000001 0.5 0.5 0.5 0.60000002 0.5 0.69999999 0.5 0.80000001 0.5 0.90000004 0.5
		 1 0.5 0 0.60000002 0.1 0.60000002 0.2 0.60000002 0.30000001 0.60000002 0.40000001
		 0.60000002 0.5 0.60000002 0.60000002 0.60000002 0.69999999 0.60000002 0.80000001
		 0.60000002 0.90000004 0.60000002 1 0.60000002 0 0.69999999 0.1 0.69999999 0.2 0.69999999
		 0.30000001 0.69999999 0.40000001 0.69999999 0.5 0.69999999 0.60000002 0.69999999
		 0.69999999 0.69999999 0.80000001 0.69999999 0.90000004 0.69999999 1 0.69999999 0
		 0.80000001 0.1 0.80000001 0.2 0.80000001 0.30000001 0.80000001 0.40000001 0.80000001
		 0.5 0.80000001 0.60000002 0.80000001 0.69999999 0.80000001 0.80000001 0.80000001
		 0.90000004 0.80000001 1 0.80000001 0 0.90000004 0.1 0.90000004 0.2 0.90000004 0.30000001
		 0.90000004 0.40000001 0.90000004 0.5 0.90000004 0.60000002 0.90000004 0.69999999
		 0.90000004 0.80000001 0.90000004 0.90000004 0.90000004 1 0.90000004 0 1 0.1 1 0.2
		 1 0.30000001 1 0.40000001 1 0.5 1 0.60000002 1 0.69999999 1 0.80000001 1 0.90000004
		 1 1 1;
	setAttr ".cuvs" -type "string" "map1";
	setAttr ".dcc" -type "string" "Ambient+Diffuse";
	setAttr ".covm[0]"  0 1 1;
	setAttr ".cdvm[0]"  0 1 1;
	setAttr -s 99 ".pt";
	setAttr ".pt[0]" -type "float3" 0 0.74801767 0 ;
	setAttr ".pt[1]" -type "float3" 0 0.74801767 0 ;
	setAttr ".pt[2]" -type "float3" 0 0.58683807 0 ;
	setAttr ".pt[3]" -type "float3" 0 0.31155306 0 ;
	setAttr ".pt[5]" -type "float3" 0 -0.059069857 0 ;
	setAttr ".pt[7]" -type "float3" 0 0.31155306 0 ;
	setAttr ".pt[8]" -type "float3" 0 0.58683807 0 ;
	setAttr ".pt[9]" -type "float3" 0 0.74801767 0 ;
	setAttr ".pt[10]" -type "float3" 0 0.74801767 0 ;
	setAttr ".pt[11]" -type "float3" 0 0.74801767 0 ;
	setAttr ".pt[12]" -type "float3" 0 0.74801767 0 ;
	setAttr ".pt[13]" -type "float3" 0 0.58683807 0 ;
	setAttr ".pt[14]" -type "float3" 0 0.31155306 0 ;
	setAttr ".pt[16]" -type "float3" 0 -0.059069857 0 ;
	setAttr ".pt[18]" -type "float3" 0 0.31155306 0 ;
	setAttr ".pt[19]" -type "float3" 0 0.58683807 0 ;
	setAttr ".pt[20]" -type "float3" 0 0.74801767 0 ;
	setAttr ".pt[21]" -type "float3" 0 0.74801767 0 ;
	setAttr ".pt[22]" -type "float3" 0 0.74801767 0 ;
	setAttr ".pt[23]" -type "float3" 0 0.74801767 0 ;
	setAttr ".pt[24]" -type "float3" 0 0.58683807 0 ;
	setAttr ".pt[25]" -type "float3" 0 0.31155306 0 ;
	setAttr ".pt[27]" -type "float3" 0 -0.059069857 0 ;
	setAttr ".pt[29]" -type "float3" 0 0.31155306 0 ;
	setAttr ".pt[30]" -type "float3" 0 0.58683807 0 ;
	setAttr ".pt[31]" -type "float3" 0 0.74801767 0 ;
	setAttr ".pt[32]" -type "float3" 0 0.74801767 0 ;
	setAttr ".pt[33]" -type "float3" 0 0.74801767 0 ;
	setAttr ".pt[34]" -type "float3" 0 0.74801767 0 ;
	setAttr ".pt[35]" -type "float3" 0 0.58683807 0 ;
	setAttr ".pt[36]" -type "float3" 0 0.31155306 0 ;
	setAttr ".pt[38]" -type "float3" 0 -0.059069857 0 ;
	setAttr ".pt[40]" -type "float3" 0 0.31155306 0 ;
	setAttr ".pt[41]" -type "float3" 0 0.58683807 0 ;
	setAttr ".pt[42]" -type "float3" 0 0.74801767 0 ;
	setAttr ".pt[43]" -type "float3" 0 0.74801767 0 ;
	setAttr ".pt[44]" -type "float3" 0 0.74801767 0 ;
	setAttr ".pt[45]" -type "float3" 0 0.74801767 0 ;
	setAttr ".pt[46]" -type "float3" 0 0.58683807 0 ;
	setAttr ".pt[47]" -type "float3" 0 0.31155306 0 ;
	setAttr ".pt[49]" -type "float3" 0 -0.059069857 0 ;
	setAttr ".pt[51]" -type "float3" 0 0.31155306 0 ;
	setAttr ".pt[52]" -type "float3" 0 0.58683807 0 ;
	setAttr ".pt[53]" -type "float3" 0 0.74801767 0 ;
	setAttr ".pt[54]" -type "float3" 0 0.74801767 0 ;
	setAttr ".pt[55]" -type "float3" 0 0.74801767 0 ;
	setAttr ".pt[56]" -type "float3" 0 0.74801767 0 ;
	setAttr ".pt[57]" -type "float3" 0 0.58683807 0 ;
	setAttr ".pt[58]" -type "float3" 0 0.31155306 0 ;
	setAttr ".pt[60]" -type "float3" 0 -0.059069857 0 ;
	setAttr ".pt[62]" -type "float3" 0 0.31155306 0 ;
	setAttr ".pt[63]" -type "float3" 0 0.58683807 0 ;
	setAttr ".pt[64]" -type "float3" 0 0.74801767 0 ;
	setAttr ".pt[65]" -type "float3" 0 0.74801767 0 ;
	setAttr ".pt[66]" -type "float3" 0 0.74801767 0 ;
	setAttr ".pt[67]" -type "float3" 0 0.74801767 0 ;
	setAttr ".pt[68]" -type "float3" 0 0.58683807 0 ;
	setAttr ".pt[69]" -type "float3" 0 0.31155306 0 ;
	setAttr ".pt[71]" -type "float3" 0 -0.059069857 0 ;
	setAttr ".pt[73]" -type "float3" 0 0.31155306 0 ;
	setAttr ".pt[74]" -type "float3" 0 0.58683807 0 ;
	setAttr ".pt[75]" -type "float3" 0 0.74801767 0 ;
	setAttr ".pt[76]" -type "float3" 0 0.74801767 0 ;
	setAttr ".pt[77]" -type "float3" 0 0.74801767 0 ;
	setAttr ".pt[78]" -type "float3" 0 0.74801767 0 ;
	setAttr ".pt[79]" -type "float3" 0 0.58683807 0 ;
	setAttr ".pt[80]" -type "float3" 0 0.31155306 0 ;
	setAttr ".pt[82]" -type "float3" 0 -0.059069857 0 ;
	setAttr ".pt[84]" -type "float3" 0 0.31155306 0 ;
	setAttr ".pt[85]" -type "float3" 0 0.58683807 0 ;
	setAttr ".pt[86]" -type "float3" 0 0.74801767 0 ;
	setAttr ".pt[87]" -type "float3" 0 0.74801767 0 ;
	setAttr ".pt[88]" -type "float3" 0 0.74801767 0 ;
	setAttr ".pt[89]" -type "float3" 0 0.74801767 0 ;
	setAttr ".pt[90]" -type "float3" 0 0.58683807 0 ;
	setAttr ".pt[91]" -type "float3" 0 0.31155306 0 ;
	setAttr ".pt[93]" -type "float3" 0 -0.059069857 0 ;
	setAttr ".pt[95]" -type "float3" 0 0.31155306 0 ;
	setAttr ".pt[96]" -type "float3" 0 0.58683807 0 ;
	setAttr ".pt[97]" -type "float3" 0 0.74801767 0 ;
	setAttr ".pt[98]" -type "float3" 0 0.74801767 0 ;
	setAttr ".pt[99]" -type "float3" 0 0.74801767 0 ;
	setAttr ".pt[100]" -type "float3" 0 0.74801767 0 ;
	setAttr ".pt[101]" -type "float3" 0 0.58683807 0 ;
	setAttr ".pt[102]" -type "float3" 0 0.31155306 0 ;
	setAttr ".pt[104]" -type "float3" 0 -0.059069857 0 ;
	setAttr ".pt[106]" -type "float3" 0 0.31155306 0 ;
	setAttr ".pt[107]" -type "float3" 0 0.58683807 0 ;
	setAttr ".pt[108]" -type "float3" 0 0.74801767 0 ;
	setAttr ".pt[109]" -type "float3" 0 0.74801767 0 ;
	setAttr ".pt[110]" -type "float3" 0 0.74801767 0 ;
	setAttr ".pt[111]" -type "float3" 0 0.74801767 0 ;
	setAttr ".pt[112]" -type "float3" 0 0.58683807 0 ;
	setAttr ".pt[113]" -type "float3" 0 0.31155306 0 ;
	setAttr ".pt[115]" -type "float3" 0 -0.059069857 0 ;
	setAttr ".pt[117]" -type "float3" 0 0.31155306 0 ;
	setAttr ".pt[118]" -type "float3" 0 0.58683807 0 ;
	setAttr ".pt[119]" -type "float3" 0 0.74801767 0 ;
	setAttr ".pt[120]" -type "float3" 0 0.74801767 0 ;
	setAttr -s 121 ".vt[0:120]"  -0.5 0 0.5 -0.40000001 0 0.5 -0.30000001 0 0.5
		 -0.19999999 0 0.5 -0.099999994 0 0.5 0 0 0.5 0.10000002 0 0.5 0.19999999 0 0.5 0.30000001 0 0.5
		 0.40000004 0 0.5 0.5 0 0.5 -0.5 0 0.40000001 -0.40000001 0 0.40000001 -0.30000001 0 0.40000001
		 -0.19999999 0 0.40000001 -0.099999994 0 0.40000001 0 0 0.40000001 0.10000002 0 0.40000001
		 0.19999999 0 0.40000001 0.30000001 0 0.40000001 0.40000004 0 0.40000001 0.5 0 0.40000001
		 -0.5 0 0.30000001 -0.40000001 0 0.30000001 -0.30000001 0 0.30000001 -0.19999999 0 0.30000001
		 -0.099999994 0 0.30000001 0 0 0.30000001 0.10000002 0 0.30000001 0.19999999 0 0.30000001
		 0.30000001 0 0.30000001 0.40000004 0 0.30000001 0.5 0 0.30000001 -0.5 0 0.19999999
		 -0.40000001 0 0.19999999 -0.30000001 0 0.19999999 -0.19999999 0 0.19999999 -0.099999994 0 0.19999999
		 0 0 0.19999999 0.10000002 0 0.19999999 0.19999999 0 0.19999999 0.30000001 0 0.19999999
		 0.40000004 0 0.19999999 0.5 0 0.19999999 -0.5 0 0.099999994 -0.40000001 0 0.099999994
		 -0.30000001 0 0.099999994 -0.19999999 0 0.099999994 -0.099999994 0 0.099999994 0 0 0.099999994
		 0.10000002 0 0.099999994 0.19999999 0 0.099999994 0.30000001 0 0.099999994 0.40000004 0 0.099999994
		 0.5 0 0.099999994 -0.5 0 0 -0.40000001 0 0 -0.30000001 0 0 -0.19999999 0 0 -0.099999994 0 0
		 0 0 0 0.10000002 0 0 0.19999999 0 0 0.30000001 0 0 0.40000004 0 0 0.5 0 0 -0.5 0 -0.10000002
		 -0.40000001 0 -0.10000002 -0.30000001 0 -0.10000002 -0.19999999 0 -0.10000002 -0.099999994 0 -0.10000002
		 0 0 -0.10000002 0.10000002 0 -0.10000002 0.19999999 0 -0.10000002 0.30000001 0 -0.10000002
		 0.40000004 0 -0.10000002 0.5 0 -0.10000002 -0.5 0 -0.19999999 -0.40000001 0 -0.19999999
		 -0.30000001 0 -0.19999999 -0.19999999 0 -0.19999999 -0.099999994 0 -0.19999999 0 0 -0.19999999
		 0.10000002 0 -0.19999999 0.19999999 0 -0.19999999 0.30000001 0 -0.19999999 0.40000004 0 -0.19999999
		 0.5 0 -0.19999999 -0.5 0 -0.30000001 -0.40000001 0 -0.30000001 -0.30000001 0 -0.30000001
		 -0.19999999 0 -0.30000001 -0.099999994 0 -0.30000001 0 0 -0.30000001 0.10000002 0 -0.30000001
		 0.19999999 0 -0.30000001 0.30000001 0 -0.30000001 0.40000004 0 -0.30000001 0.5 0 -0.30000001
		 -0.5 0 -0.40000004 -0.40000001 0 -0.40000004 -0.30000001 0 -0.40000004 -0.19999999 0 -0.40000004
		 -0.099999994 0 -0.40000004 0 0 -0.40000004 0.10000002 0 -0.40000004 0.19999999 0 -0.40000004
		 0.30000001 0 -0.40000004 0.40000004 0 -0.40000004 0.5 0 -0.40000004 -0.5 0 -0.5 -0.40000001 0 -0.5
		 -0.30000001 0 -0.5 -0.19999999 0 -0.5 -0.099999994 0 -0.5 0 0 -0.5 0.10000002 0 -0.5
		 0.19999999 0 -0.5 0.30000001 0 -0.5 0.40000004 0 -0.5 0.5 0 -0.5;
	setAttr -s 220 ".ed";
	setAttr ".ed[0:165]"  0 1 0 0 11 0 1 2 0 1 12 1 2 3 0 2 13 1 3 4 0 3 14 1
		 4 5 0 4 15 1 5 6 0 5 16 1 6 7 0 6 17 1 7 8 0 7 18 1 8 9 0 8 19 1 9 10 0 9 20 1 10 21 0
		 11 12 1 11 22 0 12 13 1 12 23 1 13 14 1 13 24 1 14 15 1 14 25 1 15 16 1 15 26 1 16 17 1
		 16 27 1 17 18 1 17 28 1 18 19 1 18 29 1 19 20 1 19 30 1 20 21 1 20 31 1 21 32 0 22 23 1
		 22 33 0 23 24 1 23 34 1 24 25 1 24 35 1 25 26 1 25 36 1 26 27 1 26 37 1 27 28 1 27 38 1
		 28 29 1 28 39 1 29 30 1 29 40 1 30 31 1 30 41 1 31 32 1 31 42 1 32 43 0 33 34 1 33 44 0
		 34 35 1 34 45 1 35 36 1 35 46 1 36 37 1 36 47 1 37 38 1 37 48 1 38 39 1 38 49 1 39 40 1
		 39 50 1 40 41 1 40 51 1 41 42 1 41 52 1 42 43 1 42 53 1 43 54 0 44 45 1 44 55 0 45 46 1
		 45 56 1 46 47 1 46 57 1 47 48 1 47 58 1 48 49 1 48 59 1 49 50 1 49 60 1 50 51 1 50 61 1
		 51 52 1 51 62 1 52 53 1 52 63 1 53 54 1 53 64 1 54 65 0 55 56 1 55 66 0 56 57 1 56 67 1
		 57 58 1 57 68 1 58 59 1 58 69 1 59 60 1 59 70 1 60 61 1 60 71 1 61 62 1 61 72 1 62 63 1
		 62 73 1 63 64 1 63 74 1 64 65 1 64 75 1 65 76 0 66 67 1 66 77 0 67 68 1 67 78 1 68 69 1
		 68 79 1 69 70 1 69 80 1 70 71 1 70 81 1 71 72 1 71 82 1 72 73 1 72 83 1 73 74 1 73 84 1
		 74 75 1 74 85 1 75 76 1 75 86 1 76 87 0 77 78 1 77 88 0 78 79 1 78 89 1 79 80 1 79 90 1
		 80 81 1 80 91 1 81 82 1 81 92 1 82 83 1 82 93 1 83 84 1 83 94 1 84 85 1 84 95 1 85 86 1
		 85 96 1 86 87 1;
	setAttr ".ed[166:219]" 86 97 1 87 98 0 88 89 1 88 99 0 89 90 1 89 100 1 90 91 1
		 90 101 1 91 92 1 91 102 1 92 93 1 92 103 1 93 94 1 93 104 1 94 95 1 94 105 1 95 96 1
		 95 106 1 96 97 1 96 107 1 97 98 1 97 108 1 98 109 0 99 100 1 99 110 0 100 101 1 100 111 1
		 101 102 1 101 112 1 102 103 1 102 113 1 103 104 1 103 114 1 104 105 1 104 115 1 105 106 1
		 105 116 1 106 107 1 106 117 1 107 108 1 107 118 1 108 109 1 108 119 1 109 120 0 110 111 0
		 111 112 0 112 113 0 113 114 0 114 115 0 115 116 0 116 117 0 117 118 0 118 119 0 119 120 0;
	setAttr -s 100 -ch 400 ".fc[0:99]" -type "polyFaces" 
		f 4 0 3 -22 -2
		mu 0 4 0 1 12 11
		f 4 2 5 -24 -4
		mu 0 4 1 2 13 12
		f 4 4 7 -26 -6
		mu 0 4 2 3 14 13
		f 4 6 9 -28 -8
		mu 0 4 3 4 15 14
		f 4 8 11 -30 -10
		mu 0 4 4 5 16 15
		f 4 10 13 -32 -12
		mu 0 4 5 6 17 16
		f 4 12 15 -34 -14
		mu 0 4 6 7 18 17
		f 4 14 17 -36 -16
		mu 0 4 7 8 19 18
		f 4 16 19 -38 -18
		mu 0 4 8 9 20 19
		f 4 18 20 -40 -20
		mu 0 4 9 10 21 20
		f 4 21 24 -43 -23
		mu 0 4 11 12 23 22
		f 4 23 26 -45 -25
		mu 0 4 12 13 24 23
		f 4 25 28 -47 -27
		mu 0 4 13 14 25 24
		f 4 27 30 -49 -29
		mu 0 4 14 15 26 25
		f 4 29 32 -51 -31
		mu 0 4 15 16 27 26
		f 4 31 34 -53 -33
		mu 0 4 16 17 28 27
		f 4 33 36 -55 -35
		mu 0 4 17 18 29 28
		f 4 35 38 -57 -37
		mu 0 4 18 19 30 29
		f 4 37 40 -59 -39
		mu 0 4 19 20 31 30
		f 4 39 41 -61 -41
		mu 0 4 20 21 32 31
		f 4 42 45 -64 -44
		mu 0 4 22 23 34 33
		f 4 44 47 -66 -46
		mu 0 4 23 24 35 34
		f 4 46 49 -68 -48
		mu 0 4 24 25 36 35
		f 4 48 51 -70 -50
		mu 0 4 25 26 37 36
		f 4 50 53 -72 -52
		mu 0 4 26 27 38 37
		f 4 52 55 -74 -54
		mu 0 4 27 28 39 38
		f 4 54 57 -76 -56
		mu 0 4 28 29 40 39
		f 4 56 59 -78 -58
		mu 0 4 29 30 41 40
		f 4 58 61 -80 -60
		mu 0 4 30 31 42 41
		f 4 60 62 -82 -62
		mu 0 4 31 32 43 42
		f 4 63 66 -85 -65
		mu 0 4 33 34 45 44
		f 4 65 68 -87 -67
		mu 0 4 34 35 46 45
		f 4 67 70 -89 -69
		mu 0 4 35 36 47 46
		f 4 69 72 -91 -71
		mu 0 4 36 37 48 47
		f 4 71 74 -93 -73
		mu 0 4 37 38 49 48
		f 4 73 76 -95 -75
		mu 0 4 38 39 50 49
		f 4 75 78 -97 -77
		mu 0 4 39 40 51 50
		f 4 77 80 -99 -79
		mu 0 4 40 41 52 51
		f 4 79 82 -101 -81
		mu 0 4 41 42 53 52
		f 4 81 83 -103 -83
		mu 0 4 42 43 54 53
		f 4 84 87 -106 -86
		mu 0 4 44 45 56 55
		f 4 86 89 -108 -88
		mu 0 4 45 46 57 56
		f 4 88 91 -110 -90
		mu 0 4 46 47 58 57
		f 4 90 93 -112 -92
		mu 0 4 47 48 59 58
		f 4 92 95 -114 -94
		mu 0 4 48 49 60 59
		f 4 94 97 -116 -96
		mu 0 4 49 50 61 60
		f 4 96 99 -118 -98
		mu 0 4 50 51 62 61
		f 4 98 101 -120 -100
		mu 0 4 51 52 63 62
		f 4 100 103 -122 -102
		mu 0 4 52 53 64 63
		f 4 102 104 -124 -104
		mu 0 4 53 54 65 64
		f 4 105 108 -127 -107
		mu 0 4 55 56 67 66
		f 4 107 110 -129 -109
		mu 0 4 56 57 68 67
		f 4 109 112 -131 -111
		mu 0 4 57 58 69 68
		f 4 111 114 -133 -113
		mu 0 4 58 59 70 69
		f 4 113 116 -135 -115
		mu 0 4 59 60 71 70
		f 4 115 118 -137 -117
		mu 0 4 60 61 72 71
		f 4 117 120 -139 -119
		mu 0 4 61 62 73 72
		f 4 119 122 -141 -121
		mu 0 4 62 63 74 73
		f 4 121 124 -143 -123
		mu 0 4 63 64 75 74
		f 4 123 125 -145 -125
		mu 0 4 64 65 76 75
		f 4 126 129 -148 -128
		mu 0 4 66 67 78 77
		f 4 128 131 -150 -130
		mu 0 4 67 68 79 78
		f 4 130 133 -152 -132
		mu 0 4 68 69 80 79
		f 4 132 135 -154 -134
		mu 0 4 69 70 81 80
		f 4 134 137 -156 -136
		mu 0 4 70 71 82 81
		f 4 136 139 -158 -138
		mu 0 4 71 72 83 82
		f 4 138 141 -160 -140
		mu 0 4 72 73 84 83
		f 4 140 143 -162 -142
		mu 0 4 73 74 85 84
		f 4 142 145 -164 -144
		mu 0 4 74 75 86 85
		f 4 144 146 -166 -146
		mu 0 4 75 76 87 86
		f 4 147 150 -169 -149
		mu 0 4 77 78 89 88
		f 4 149 152 -171 -151
		mu 0 4 78 79 90 89
		f 4 151 154 -173 -153
		mu 0 4 79 80 91 90
		f 4 153 156 -175 -155
		mu 0 4 80 81 92 91
		f 4 155 158 -177 -157
		mu 0 4 81 82 93 92
		f 4 157 160 -179 -159
		mu 0 4 82 83 94 93
		f 4 159 162 -181 -161
		mu 0 4 83 84 95 94
		f 4 161 164 -183 -163
		mu 0 4 84 85 96 95
		f 4 163 166 -185 -165
		mu 0 4 85 86 97 96
		f 4 165 167 -187 -167
		mu 0 4 86 87 98 97
		f 4 168 171 -190 -170
		mu 0 4 88 89 100 99
		f 4 170 173 -192 -172
		mu 0 4 89 90 101 100
		f 4 172 175 -194 -174
		mu 0 4 90 91 102 101
		f 4 174 177 -196 -176
		mu 0 4 91 92 103 102
		f 4 176 179 -198 -178
		mu 0 4 92 93 104 103
		f 4 178 181 -200 -180
		mu 0 4 93 94 105 104
		f 4 180 183 -202 -182
		mu 0 4 94 95 106 105
		f 4 182 185 -204 -184
		mu 0 4 95 96 107 106
		f 4 184 187 -206 -186
		mu 0 4 96 97 108 107
		f 4 186 188 -208 -188
		mu 0 4 97 98 109 108
		f 4 189 192 -211 -191
		mu 0 4 99 100 111 110
		f 4 191 194 -212 -193
		mu 0 4 100 101 112 111
		f 4 193 196 -213 -195
		mu 0 4 101 102 113 112
		f 4 195 198 -214 -197
		mu 0 4 102 103 114 113
		f 4 197 200 -215 -199
		mu 0 4 103 104 115 114
		f 4 199 202 -216 -201
		mu 0 4 104 105 116 115
		f 4 201 204 -217 -203
		mu 0 4 105 106 117 116
		f 4 203 206 -218 -205
		mu 0 4 106 107 118 117
		f 4 205 208 -219 -207
		mu 0 4 107 108 119 118
		f 4 207 209 -220 -209
		mu 0 4 108 109 120 119;
	setAttr ".cd" -type "dataPolyComponent" Index_Data Edge 0 ;
	setAttr ".cvd" -type "dataPolyComponent" Index_Data Vertex 0 ;
	setAttr ".pd[0]" -type "dataPolyComponent" Index_Data UV 0 ;
	setAttr ".hfd" -type "dataPolyComponent" Index_Data Face 0 ;
	setAttr ".ai_translator" -type "string" "polymesh";
createNode lightLinker -s -n "lightLinker1";
	rename -uid "FF02D844-4592-D8EC-E562-E484AC039076";
	setAttr -s 2 ".lnk";
	setAttr -s 2 ".slnk";
createNode shapeEditorManager -n "shapeEditorManager";
	rename -uid "4398A70F-4F3D-FB9F-384C-7AB82882D6E5";
createNode poseInterpolatorManager -n "poseInterpolatorManager";
	rename -uid "FE26CB10-4309-BF63-D942-7FB2B01B410F";
createNode displayLayerManager -n "layerManager";
	rename -uid "6EEF5A84-4B8C-4780-79A3-6A87E2B383E7";
createNode displayLayer -n "defaultLayer";
	rename -uid "DA0D5CCD-4DDD-162B-7FFD-F2BA168B2AAB";
createNode renderLayerManager -n "renderLayerManager";
	rename -uid "8D59FB66-4210-4F15-0D03-FF81EC5AE25A";
createNode renderLayer -n "defaultRenderLayer";
	rename -uid "22FE2503-4C90-A3D9-2433-D5A2A4AFBF50";
	setAttr ".g" yes;
createNode script -n "uiConfigurationScriptNode";
	rename -uid "23521BA4-491E-A4B1-48AA-8CA57EB7164D";
	setAttr ".b" -type "string" (
		"// Maya Mel UI Configuration File.\n//\n//  This script is machine generated.  Edit at your own risk.\n//\n//\n\nglobal string $gMainPane;\nif (`paneLayout -exists $gMainPane`) {\n\n\tglobal int $gUseScenePanelConfig;\n\tint    $useSceneConfig = $gUseScenePanelConfig;\n\tint    $nodeEditorPanelVisible = stringArrayContains(\"nodeEditorPanel1\", `getPanel -vis`);\n\tint    $nodeEditorWorkspaceControlOpen = (`workspaceControl -exists nodeEditorPanel1Window` && `workspaceControl -q -visible nodeEditorPanel1Window`);\n\tint    $menusOkayInPanels = `optionVar -q allowMenusInPanels`;\n\tint    $nVisPanes = `paneLayout -q -nvp $gMainPane`;\n\tint    $nPanes = 0;\n\tstring $editorName;\n\tstring $panelName;\n\tstring $itemFilterName;\n\tstring $panelConfig;\n\n\t//\n\t//  get current state of the UI\n\t//\n\tsceneUIReplacement -update $gMainPane;\n\n\t$panelName = `sceneUIReplacement -getNextPanel \"modelPanel\" (localizedPanelLabel(\"Top View\")) `;\n\tif (\"\" != $panelName) {\n\t\t$label = `panel -q -label $panelName`;\n\t\tmodelPanel -edit -l (localizedPanelLabel(\"Top View\")) -mbv $menusOkayInPanels  $panelName;\n"
		+ "\t\t$editorName = $panelName;\n        modelEditor -e \n            -camera \"top\" \n            -useInteractiveMode 0\n            -displayLights \"default\" \n            -displayAppearance \"smoothShaded\" \n            -activeOnly 0\n            -ignorePanZoom 0\n            -wireframeOnShaded 0\n            -headsUpDisplay 1\n            -holdOuts 1\n            -selectionHiliteDisplay 1\n            -useDefaultMaterial 0\n            -bufferMode \"double\" \n            -twoSidedLighting 0\n            -backfaceCulling 0\n            -xray 0\n            -jointXray 0\n            -activeComponentsXray 0\n            -displayTextures 0\n            -smoothWireframe 0\n            -lineWidth 1\n            -textureAnisotropic 0\n            -textureHilight 1\n            -textureSampling 2\n            -textureDisplay \"modulate\" \n            -textureMaxSize 32768\n            -fogging 0\n            -fogSource \"fragment\" \n            -fogMode \"linear\" \n            -fogStart 0\n            -fogEnd 100\n            -fogDensity 0.1\n            -fogColor 0.5 0.5 0.5 1 \n"
		+ "            -depthOfFieldPreview 1\n            -maxConstantTransparency 1\n            -rendererName \"vp2Renderer\" \n            -objectFilterShowInHUD 1\n            -isFiltered 0\n            -colorResolution 256 256 \n            -bumpResolution 512 512 \n            -textureCompression 0\n            -transparencyAlgorithm \"frontAndBackCull\" \n            -transpInShadows 0\n            -cullingOverride \"none\" \n            -lowQualityLighting 0\n            -maximumNumHardwareLights 1\n            -occlusionCulling 0\n            -shadingModel 0\n            -useBaseRenderer 0\n            -useReducedRenderer 0\n            -smallObjectCulling 0\n            -smallObjectThreshold -1 \n            -interactiveDisableShadows 0\n            -interactiveBackFaceCull 0\n            -sortTransparent 1\n            -controllers 1\n            -nurbsCurves 1\n            -nurbsSurfaces 1\n            -polymeshes 1\n            -subdivSurfaces 1\n            -planes 1\n            -lights 1\n            -cameras 1\n            -controlVertices 1\n"
		+ "            -hulls 1\n            -grid 1\n            -imagePlane 1\n            -joints 1\n            -ikHandles 1\n            -deformers 1\n            -dynamics 1\n            -particleInstancers 1\n            -fluids 1\n            -hairSystems 1\n            -follicles 1\n            -nCloths 1\n            -nParticles 1\n            -nRigids 1\n            -dynamicConstraints 1\n            -locators 1\n            -manipulators 1\n            -pluginShapes 1\n            -dimensions 1\n            -handles 1\n            -pivots 1\n            -textures 1\n            -strokes 1\n            -motionTrails 1\n            -clipGhosts 1\n            -greasePencils 1\n            -shadows 0\n            -captureSequenceNumber -1\n            -width 1\n            -height 1\n            -sceneRenderFilter 0\n            $editorName;\n        modelEditor -e -viewSelected 0 $editorName;\n        modelEditor -e \n            -pluginObjects \"gpuCacheDisplayFilter\" 1 \n            $editorName;\n\t\tif (!$useSceneConfig) {\n\t\t\tpanel -e -l $label $panelName;\n"
		+ "\t\t}\n\t}\n\n\n\t$panelName = `sceneUIReplacement -getNextPanel \"modelPanel\" (localizedPanelLabel(\"Side View\")) `;\n\tif (\"\" != $panelName) {\n\t\t$label = `panel -q -label $panelName`;\n\t\tmodelPanel -edit -l (localizedPanelLabel(\"Side View\")) -mbv $menusOkayInPanels  $panelName;\n\t\t$editorName = $panelName;\n        modelEditor -e \n            -camera \"side\" \n            -useInteractiveMode 0\n            -displayLights \"default\" \n            -displayAppearance \"smoothShaded\" \n            -activeOnly 0\n            -ignorePanZoom 0\n            -wireframeOnShaded 0\n            -headsUpDisplay 1\n            -holdOuts 1\n            -selectionHiliteDisplay 1\n            -useDefaultMaterial 0\n            -bufferMode \"double\" \n            -twoSidedLighting 0\n            -backfaceCulling 0\n            -xray 0\n            -jointXray 0\n            -activeComponentsXray 0\n            -displayTextures 0\n            -smoothWireframe 0\n            -lineWidth 1\n            -textureAnisotropic 0\n            -textureHilight 1\n            -textureSampling 2\n"
		+ "            -textureDisplay \"modulate\" \n            -textureMaxSize 32768\n            -fogging 0\n            -fogSource \"fragment\" \n            -fogMode \"linear\" \n            -fogStart 0\n            -fogEnd 100\n            -fogDensity 0.1\n            -fogColor 0.5 0.5 0.5 1 \n            -depthOfFieldPreview 1\n            -maxConstantTransparency 1\n            -rendererName \"vp2Renderer\" \n            -objectFilterShowInHUD 1\n            -isFiltered 0\n            -colorResolution 256 256 \n            -bumpResolution 512 512 \n            -textureCompression 0\n            -transparencyAlgorithm \"frontAndBackCull\" \n            -transpInShadows 0\n            -cullingOverride \"none\" \n            -lowQualityLighting 0\n            -maximumNumHardwareLights 1\n            -occlusionCulling 0\n            -shadingModel 0\n            -useBaseRenderer 0\n            -useReducedRenderer 0\n            -smallObjectCulling 0\n            -smallObjectThreshold -1 \n            -interactiveDisableShadows 0\n            -interactiveBackFaceCull 0\n"
		+ "            -sortTransparent 1\n            -controllers 1\n            -nurbsCurves 1\n            -nurbsSurfaces 1\n            -polymeshes 1\n            -subdivSurfaces 1\n            -planes 1\n            -lights 1\n            -cameras 1\n            -controlVertices 1\n            -hulls 1\n            -grid 1\n            -imagePlane 1\n            -joints 1\n            -ikHandles 1\n            -deformers 1\n            -dynamics 1\n            -particleInstancers 1\n            -fluids 1\n            -hairSystems 1\n            -follicles 1\n            -nCloths 1\n            -nParticles 1\n            -nRigids 1\n            -dynamicConstraints 1\n            -locators 1\n            -manipulators 1\n            -pluginShapes 1\n            -dimensions 1\n            -handles 1\n            -pivots 1\n            -textures 1\n            -strokes 1\n            -motionTrails 1\n            -clipGhosts 1\n            -greasePencils 1\n            -shadows 0\n            -captureSequenceNumber -1\n            -width 1\n            -height 1\n"
		+ "            -sceneRenderFilter 0\n            $editorName;\n        modelEditor -e -viewSelected 0 $editorName;\n        modelEditor -e \n            -pluginObjects \"gpuCacheDisplayFilter\" 1 \n            $editorName;\n\t\tif (!$useSceneConfig) {\n\t\t\tpanel -e -l $label $panelName;\n\t\t}\n\t}\n\n\n\t$panelName = `sceneUIReplacement -getNextPanel \"modelPanel\" (localizedPanelLabel(\"Front View\")) `;\n\tif (\"\" != $panelName) {\n\t\t$label = `panel -q -label $panelName`;\n\t\tmodelPanel -edit -l (localizedPanelLabel(\"Front View\")) -mbv $menusOkayInPanels  $panelName;\n\t\t$editorName = $panelName;\n        modelEditor -e \n            -camera \"front\" \n            -useInteractiveMode 0\n            -displayLights \"default\" \n            -displayAppearance \"smoothShaded\" \n            -activeOnly 0\n            -ignorePanZoom 0\n            -wireframeOnShaded 0\n            -headsUpDisplay 1\n            -holdOuts 1\n            -selectionHiliteDisplay 1\n            -useDefaultMaterial 0\n            -bufferMode \"double\" \n            -twoSidedLighting 0\n            -backfaceCulling 0\n"
		+ "            -xray 0\n            -jointXray 0\n            -activeComponentsXray 0\n            -displayTextures 0\n            -smoothWireframe 0\n            -lineWidth 1\n            -textureAnisotropic 0\n            -textureHilight 1\n            -textureSampling 2\n            -textureDisplay \"modulate\" \n            -textureMaxSize 32768\n            -fogging 0\n            -fogSource \"fragment\" \n            -fogMode \"linear\" \n            -fogStart 0\n            -fogEnd 100\n            -fogDensity 0.1\n            -fogColor 0.5 0.5 0.5 1 \n            -depthOfFieldPreview 1\n            -maxConstantTransparency 1\n            -rendererName \"vp2Renderer\" \n            -objectFilterShowInHUD 1\n            -isFiltered 0\n            -colorResolution 256 256 \n            -bumpResolution 512 512 \n            -textureCompression 0\n            -transparencyAlgorithm \"frontAndBackCull\" \n            -transpInShadows 0\n            -cullingOverride \"none\" \n            -lowQualityLighting 0\n            -maximumNumHardwareLights 1\n            -occlusionCulling 0\n"
		+ "            -shadingModel 0\n            -useBaseRenderer 0\n            -useReducedRenderer 0\n            -smallObjectCulling 0\n            -smallObjectThreshold -1 \n            -interactiveDisableShadows 0\n            -interactiveBackFaceCull 0\n            -sortTransparent 1\n            -controllers 1\n            -nurbsCurves 1\n            -nurbsSurfaces 1\n            -polymeshes 1\n            -subdivSurfaces 1\n            -planes 1\n            -lights 1\n            -cameras 1\n            -controlVertices 1\n            -hulls 1\n            -grid 1\n            -imagePlane 1\n            -joints 1\n            -ikHandles 1\n            -deformers 1\n            -dynamics 1\n            -particleInstancers 1\n            -fluids 1\n            -hairSystems 1\n            -follicles 1\n            -nCloths 1\n            -nParticles 1\n            -nRigids 1\n            -dynamicConstraints 1\n            -locators 1\n            -manipulators 1\n            -pluginShapes 1\n            -dimensions 1\n            -handles 1\n            -pivots 1\n"
		+ "            -textures 1\n            -strokes 1\n            -motionTrails 1\n            -clipGhosts 1\n            -greasePencils 1\n            -shadows 0\n            -captureSequenceNumber -1\n            -width 1\n            -height 1\n            -sceneRenderFilter 0\n            $editorName;\n        modelEditor -e -viewSelected 0 $editorName;\n        modelEditor -e \n            -pluginObjects \"gpuCacheDisplayFilter\" 1 \n            $editorName;\n\t\tif (!$useSceneConfig) {\n\t\t\tpanel -e -l $label $panelName;\n\t\t}\n\t}\n\n\n\t$panelName = `sceneUIReplacement -getNextPanel \"modelPanel\" (localizedPanelLabel(\"Persp View\")) `;\n\tif (\"\" != $panelName) {\n\t\t$label = `panel -q -label $panelName`;\n\t\tmodelPanel -edit -l (localizedPanelLabel(\"Persp View\")) -mbv $menusOkayInPanels  $panelName;\n\t\t$editorName = $panelName;\n        modelEditor -e \n            -camera \"persp\" \n            -useInteractiveMode 0\n            -displayLights \"default\" \n            -displayAppearance \"smoothShaded\" \n            -activeOnly 0\n            -ignorePanZoom 0\n"
		+ "            -wireframeOnShaded 0\n            -headsUpDisplay 1\n            -holdOuts 1\n            -selectionHiliteDisplay 1\n            -useDefaultMaterial 0\n            -bufferMode \"double\" \n            -twoSidedLighting 0\n            -backfaceCulling 0\n            -xray 0\n            -jointXray 0\n            -activeComponentsXray 0\n            -displayTextures 0\n            -smoothWireframe 0\n            -lineWidth 1\n            -textureAnisotropic 0\n            -textureHilight 1\n            -textureSampling 2\n            -textureDisplay \"modulate\" \n            -textureMaxSize 32768\n            -fogging 0\n            -fogSource \"fragment\" \n            -fogMode \"linear\" \n            -fogStart 0\n            -fogEnd 100\n            -fogDensity 0.1\n            -fogColor 0.5 0.5 0.5 1 \n            -depthOfFieldPreview 1\n            -maxConstantTransparency 1\n            -rendererName \"vp2Renderer\" \n            -objectFilterShowInHUD 1\n            -isFiltered 0\n            -colorResolution 256 256 \n            -bumpResolution 512 512 \n"
		+ "            -textureCompression 0\n            -transparencyAlgorithm \"frontAndBackCull\" \n            -transpInShadows 0\n            -cullingOverride \"none\" \n            -lowQualityLighting 0\n            -maximumNumHardwareLights 1\n            -occlusionCulling 0\n            -shadingModel 0\n            -useBaseRenderer 0\n            -useReducedRenderer 0\n            -smallObjectCulling 0\n            -smallObjectThreshold -1 \n            -interactiveDisableShadows 0\n            -interactiveBackFaceCull 0\n            -sortTransparent 1\n            -controllers 1\n            -nurbsCurves 1\n            -nurbsSurfaces 1\n            -polymeshes 1\n            -subdivSurfaces 1\n            -planes 1\n            -lights 1\n            -cameras 1\n            -controlVertices 1\n            -hulls 1\n            -grid 1\n            -imagePlane 1\n            -joints 1\n            -ikHandles 1\n            -deformers 1\n            -dynamics 1\n            -particleInstancers 1\n            -fluids 1\n            -hairSystems 1\n            -follicles 1\n"
		+ "            -nCloths 1\n            -nParticles 1\n            -nRigids 1\n            -dynamicConstraints 1\n            -locators 1\n            -manipulators 1\n            -pluginShapes 1\n            -dimensions 1\n            -handles 1\n            -pivots 1\n            -textures 1\n            -strokes 1\n            -motionTrails 1\n            -clipGhosts 1\n            -greasePencils 1\n            -shadows 0\n            -captureSequenceNumber -1\n            -width 1349\n            -height 525\n            -sceneRenderFilter 0\n            $editorName;\n        modelEditor -e -viewSelected 0 $editorName;\n        modelEditor -e \n            -pluginObjects \"gpuCacheDisplayFilter\" 1 \n            $editorName;\n\t\tif (!$useSceneConfig) {\n\t\t\tpanel -e -l $label $panelName;\n\t\t}\n\t}\n\n\n\t$panelName = `sceneUIReplacement -getNextPanel \"outlinerPanel\" (localizedPanelLabel(\"ToggledOutliner\")) `;\n\tif (\"\" != $panelName) {\n\t\t$label = `panel -q -label $panelName`;\n\t\toutlinerPanel -edit -l (localizedPanelLabel(\"ToggledOutliner\")) -mbv $menusOkayInPanels  $panelName;\n"
		+ "\t\t$editorName = $panelName;\n        outlinerEditor -e \n            -showShapes 0\n            -showAssignedMaterials 0\n            -showTimeEditor 1\n            -showReferenceNodes 1\n            -showReferenceMembers 1\n            -showAttributes 0\n            -showConnected 0\n            -showAnimCurvesOnly 0\n            -showMuteInfo 0\n            -organizeByLayer 1\n            -organizeByClip 1\n            -showAnimLayerWeight 1\n            -autoExpandLayers 1\n            -autoExpand 0\n            -showDagOnly 1\n            -showAssets 1\n            -showContainedOnly 1\n            -showPublishedAsConnected 0\n            -showParentContainers 0\n            -showContainerContents 1\n            -ignoreDagHierarchy 0\n            -expandConnections 0\n            -showUpstreamCurves 1\n            -showUnitlessCurves 1\n            -showCompounds 1\n            -showLeafs 1\n            -showNumericAttrsOnly 0\n            -highlightActive 1\n            -autoSelectNewObjects 0\n            -doNotSelectNewObjects 0\n            -dropIsParent 1\n"
		+ "            -transmitFilters 0\n            -setFilter \"defaultSetFilter\" \n            -showSetMembers 1\n            -allowMultiSelection 1\n            -alwaysToggleSelect 0\n            -directSelect 0\n            -isSet 0\n            -isSetMember 0\n            -displayMode \"DAG\" \n            -expandObjects 0\n            -setsIgnoreFilters 1\n            -containersIgnoreFilters 0\n            -editAttrName 0\n            -showAttrValues 0\n            -highlightSecondary 0\n            -showUVAttrsOnly 0\n            -showTextureNodesOnly 0\n            -attrAlphaOrder \"default\" \n            -animLayerFilterOptions \"allAffecting\" \n            -sortOrder \"none\" \n            -longNames 0\n            -niceNames 1\n            -showNamespace 1\n            -showPinIcons 0\n            -mapMotionTrails 0\n            -ignoreHiddenAttribute 0\n            -ignoreOutlinerColor 0\n            -renderFilterVisible 0\n            -renderFilterIndex 0\n            -selectionOrder \"chronological\" \n            -expandAttribute 0\n            $editorName;\n"
		+ "\t\tif (!$useSceneConfig) {\n\t\t\tpanel -e -l $label $panelName;\n\t\t}\n\t}\n\n\n\t$panelName = `sceneUIReplacement -getNextPanel \"outlinerPanel\" (localizedPanelLabel(\"Outliner\")) `;\n\tif (\"\" != $panelName) {\n\t\t$label = `panel -q -label $panelName`;\n\t\toutlinerPanel -edit -l (localizedPanelLabel(\"Outliner\")) -mbv $menusOkayInPanels  $panelName;\n\t\t$editorName = $panelName;\n        outlinerEditor -e \n            -showShapes 0\n            -showAssignedMaterials 0\n            -showTimeEditor 1\n            -showReferenceNodes 0\n            -showReferenceMembers 0\n            -showAttributes 0\n            -showConnected 0\n            -showAnimCurvesOnly 0\n            -showMuteInfo 0\n            -organizeByLayer 1\n            -organizeByClip 1\n            -showAnimLayerWeight 1\n            -autoExpandLayers 1\n            -autoExpand 0\n            -showDagOnly 1\n            -showAssets 1\n            -showContainedOnly 1\n            -showPublishedAsConnected 0\n            -showParentContainers 0\n            -showContainerContents 1\n            -ignoreDagHierarchy 0\n"
		+ "            -expandConnections 0\n            -showUpstreamCurves 1\n            -showUnitlessCurves 1\n            -showCompounds 1\n            -showLeafs 1\n            -showNumericAttrsOnly 0\n            -highlightActive 1\n            -autoSelectNewObjects 0\n            -doNotSelectNewObjects 0\n            -dropIsParent 1\n            -transmitFilters 0\n            -setFilter \"0\" \n            -showSetMembers 1\n            -allowMultiSelection 1\n            -alwaysToggleSelect 0\n            -directSelect 0\n            -displayMode \"DAG\" \n            -expandObjects 0\n            -setsIgnoreFilters 1\n            -containersIgnoreFilters 0\n            -editAttrName 0\n            -showAttrValues 0\n            -highlightSecondary 0\n            -showUVAttrsOnly 0\n            -showTextureNodesOnly 0\n            -attrAlphaOrder \"default\" \n            -animLayerFilterOptions \"allAffecting\" \n            -sortOrder \"none\" \n            -longNames 0\n            -niceNames 1\n            -showNamespace 1\n            -showPinIcons 0\n"
		+ "            -mapMotionTrails 0\n            -ignoreHiddenAttribute 0\n            -ignoreOutlinerColor 0\n            -renderFilterVisible 0\n            $editorName;\n\t\tif (!$useSceneConfig) {\n\t\t\tpanel -e -l $label $panelName;\n\t\t}\n\t}\n\n\n\t$panelName = `sceneUIReplacement -getNextScriptedPanel \"graphEditor\" (localizedPanelLabel(\"Graph Editor\")) `;\n\tif (\"\" != $panelName) {\n\t\t$label = `panel -q -label $panelName`;\n\t\tscriptedPanel -edit -l (localizedPanelLabel(\"Graph Editor\")) -mbv $menusOkayInPanels  $panelName;\n\n\t\t\t$editorName = ($panelName+\"OutlineEd\");\n            outlinerEditor -e \n                -showShapes 1\n                -showAssignedMaterials 0\n                -showTimeEditor 1\n                -showReferenceNodes 0\n                -showReferenceMembers 0\n                -showAttributes 1\n                -showConnected 1\n                -showAnimCurvesOnly 1\n                -showMuteInfo 0\n                -organizeByLayer 1\n                -organizeByClip 1\n                -showAnimLayerWeight 1\n                -autoExpandLayers 1\n"
		+ "                -autoExpand 1\n                -showDagOnly 0\n                -showAssets 1\n                -showContainedOnly 0\n                -showPublishedAsConnected 0\n                -showParentContainers 0\n                -showContainerContents 0\n                -ignoreDagHierarchy 0\n                -expandConnections 1\n                -showUpstreamCurves 1\n                -showUnitlessCurves 1\n                -showCompounds 0\n                -showLeafs 1\n                -showNumericAttrsOnly 1\n                -highlightActive 0\n                -autoSelectNewObjects 1\n                -doNotSelectNewObjects 0\n                -dropIsParent 1\n                -transmitFilters 1\n                -setFilter \"0\" \n                -showSetMembers 0\n                -allowMultiSelection 1\n                -alwaysToggleSelect 0\n                -directSelect 0\n                -displayMode \"DAG\" \n                -expandObjects 0\n                -setsIgnoreFilters 1\n                -containersIgnoreFilters 0\n                -editAttrName 0\n"
		+ "                -showAttrValues 0\n                -highlightSecondary 0\n                -showUVAttrsOnly 0\n                -showTextureNodesOnly 0\n                -attrAlphaOrder \"default\" \n                -animLayerFilterOptions \"allAffecting\" \n                -sortOrder \"none\" \n                -longNames 0\n                -niceNames 1\n                -showNamespace 1\n                -showPinIcons 1\n                -mapMotionTrails 1\n                -ignoreHiddenAttribute 0\n                -ignoreOutlinerColor 0\n                -renderFilterVisible 0\n                $editorName;\n\n\t\t\t$editorName = ($panelName+\"GraphEd\");\n            animCurveEditor -e \n                -displayValues 0\n                -snapTime \"integer\" \n                -snapValue \"none\" \n                -showPlayRangeShades \"on\" \n                -lockPlayRangeShades \"off\" \n                -smoothness \"fine\" \n                -resultSamples 1\n                -resultScreenSamples 0\n                -resultUpdate \"delayed\" \n                -showUpstreamCurves 1\n"
		+ "                -keyMinScale 1\n                -stackedCurvesMin -1\n                -stackedCurvesMax 1\n                -stackedCurvesSpace 0.2\n                -preSelectionHighlight 0\n                -constrainDrag 0\n                -valueLinesToggle 1\n                -highlightAffectedCurves 0\n                $editorName;\n\t\tif (!$useSceneConfig) {\n\t\t\tpanel -e -l $label $panelName;\n\t\t}\n\t}\n\n\n\t$panelName = `sceneUIReplacement -getNextScriptedPanel \"dopeSheetPanel\" (localizedPanelLabel(\"Dope Sheet\")) `;\n\tif (\"\" != $panelName) {\n\t\t$label = `panel -q -label $panelName`;\n\t\tscriptedPanel -edit -l (localizedPanelLabel(\"Dope Sheet\")) -mbv $menusOkayInPanels  $panelName;\n\n\t\t\t$editorName = ($panelName+\"OutlineEd\");\n            outlinerEditor -e \n                -showShapes 1\n                -showAssignedMaterials 0\n                -showTimeEditor 1\n                -showReferenceNodes 0\n                -showReferenceMembers 0\n                -showAttributes 1\n                -showConnected 1\n                -showAnimCurvesOnly 1\n"
		+ "                -showMuteInfo 0\n                -organizeByLayer 1\n                -organizeByClip 1\n                -showAnimLayerWeight 1\n                -autoExpandLayers 1\n                -autoExpand 0\n                -showDagOnly 0\n                -showAssets 1\n                -showContainedOnly 0\n                -showPublishedAsConnected 0\n                -showParentContainers 0\n                -showContainerContents 0\n                -ignoreDagHierarchy 0\n                -expandConnections 1\n                -showUpstreamCurves 1\n                -showUnitlessCurves 0\n                -showCompounds 1\n                -showLeafs 1\n                -showNumericAttrsOnly 1\n                -highlightActive 0\n                -autoSelectNewObjects 0\n                -doNotSelectNewObjects 1\n                -dropIsParent 1\n                -transmitFilters 0\n                -setFilter \"0\" \n                -showSetMembers 0\n                -allowMultiSelection 1\n                -alwaysToggleSelect 0\n                -directSelect 0\n"
		+ "                -displayMode \"DAG\" \n                -expandObjects 0\n                -setsIgnoreFilters 1\n                -containersIgnoreFilters 0\n                -editAttrName 0\n                -showAttrValues 0\n                -highlightSecondary 0\n                -showUVAttrsOnly 0\n                -showTextureNodesOnly 0\n                -attrAlphaOrder \"default\" \n                -animLayerFilterOptions \"allAffecting\" \n                -sortOrder \"none\" \n                -longNames 0\n                -niceNames 1\n                -showNamespace 1\n                -showPinIcons 0\n                -mapMotionTrails 1\n                -ignoreHiddenAttribute 0\n                -ignoreOutlinerColor 0\n                -renderFilterVisible 0\n                $editorName;\n\n\t\t\t$editorName = ($panelName+\"DopeSheetEd\");\n            dopeSheetEditor -e \n                -displayValues 0\n                -snapTime \"integer\" \n                -snapValue \"none\" \n                -outliner \"dopeSheetPanel1OutlineEd\" \n                -showSummary 1\n"
		+ "                -showScene 0\n                -hierarchyBelow 0\n                -showTicks 1\n                -selectionWindow 0 0 0 0 \n                $editorName;\n\t\tif (!$useSceneConfig) {\n\t\t\tpanel -e -l $label $panelName;\n\t\t}\n\t}\n\n\n\t$panelName = `sceneUIReplacement -getNextScriptedPanel \"timeEditorPanel\" (localizedPanelLabel(\"Time Editor\")) `;\n\tif (\"\" != $panelName) {\n\t\t$label = `panel -q -label $panelName`;\n\t\tscriptedPanel -edit -l (localizedPanelLabel(\"Time Editor\")) -mbv $menusOkayInPanels  $panelName;\n\t\tif (!$useSceneConfig) {\n\t\t\tpanel -e -l $label $panelName;\n\t\t}\n\t}\n\n\n\t$panelName = `sceneUIReplacement -getNextScriptedPanel \"clipEditorPanel\" (localizedPanelLabel(\"Trax Editor\")) `;\n\tif (\"\" != $panelName) {\n\t\t$label = `panel -q -label $panelName`;\n\t\tscriptedPanel -edit -l (localizedPanelLabel(\"Trax Editor\")) -mbv $menusOkayInPanels  $panelName;\n\n\t\t\t$editorName = clipEditorNameFromPanel($panelName);\n            clipEditor -e \n                -displayValues 0\n                -snapTime \"none\" \n                -snapValue \"none\" \n"
		+ "                -initialized 0\n                -manageSequencer 0 \n                $editorName;\n\t\tif (!$useSceneConfig) {\n\t\t\tpanel -e -l $label $panelName;\n\t\t}\n\t}\n\n\n\t$panelName = `sceneUIReplacement -getNextScriptedPanel \"sequenceEditorPanel\" (localizedPanelLabel(\"Camera Sequencer\")) `;\n\tif (\"\" != $panelName) {\n\t\t$label = `panel -q -label $panelName`;\n\t\tscriptedPanel -edit -l (localizedPanelLabel(\"Camera Sequencer\")) -mbv $menusOkayInPanels  $panelName;\n\n\t\t\t$editorName = sequenceEditorNameFromPanel($panelName);\n            clipEditor -e \n                -displayValues 0\n                -snapTime \"none\" \n                -snapValue \"none\" \n                -initialized 0\n                -manageSequencer 1 \n                $editorName;\n\t\tif (!$useSceneConfig) {\n\t\t\tpanel -e -l $label $panelName;\n\t\t}\n\t}\n\n\n\t$panelName = `sceneUIReplacement -getNextScriptedPanel \"hyperGraphPanel\" (localizedPanelLabel(\"Hypergraph Hierarchy\")) `;\n\tif (\"\" != $panelName) {\n\t\t$label = `panel -q -label $panelName`;\n\t\tscriptedPanel -edit -l (localizedPanelLabel(\"Hypergraph Hierarchy\")) -mbv $menusOkayInPanels  $panelName;\n"
		+ "\n\t\t\t$editorName = ($panelName+\"HyperGraphEd\");\n            hyperGraph -e \n                -graphLayoutStyle \"hierarchicalLayout\" \n                -orientation \"horiz\" \n                -mergeConnections 0\n                -zoom 1\n                -animateTransition 0\n                -showRelationships 1\n                -showShapes 0\n                -showDeformers 0\n                -showExpressions 0\n                -showConstraints 0\n                -showConnectionFromSelected 0\n                -showConnectionToSelected 0\n                -showConstraintLabels 0\n                -showUnderworld 0\n                -showInvisible 0\n                -transitionFrames 1\n                -opaqueContainers 0\n                -freeform 0\n                -imagePosition 0 0 \n                -imageScale 1\n                -imageEnabled 0\n                -graphType \"DAG\" \n                -heatMapDisplay 0\n                -updateSelection 1\n                -updateNodeAdded 1\n                -useDrawOverrideColor 0\n                -limitGraphTraversal -1\n"
		+ "                -range 0 0 \n                -iconSize \"smallIcons\" \n                -showCachedConnections 0\n                $editorName;\n\t\tif (!$useSceneConfig) {\n\t\t\tpanel -e -l $label $panelName;\n\t\t}\n\t}\n\n\n\t$panelName = `sceneUIReplacement -getNextScriptedPanel \"hyperShadePanel\" (localizedPanelLabel(\"Hypershade\")) `;\n\tif (\"\" != $panelName) {\n\t\t$label = `panel -q -label $panelName`;\n\t\tscriptedPanel -edit -l (localizedPanelLabel(\"Hypershade\")) -mbv $menusOkayInPanels  $panelName;\n\t\tif (!$useSceneConfig) {\n\t\t\tpanel -e -l $label $panelName;\n\t\t}\n\t}\n\n\n\t$panelName = `sceneUIReplacement -getNextScriptedPanel \"visorPanel\" (localizedPanelLabel(\"Visor\")) `;\n\tif (\"\" != $panelName) {\n\t\t$label = `panel -q -label $panelName`;\n\t\tscriptedPanel -edit -l (localizedPanelLabel(\"Visor\")) -mbv $menusOkayInPanels  $panelName;\n\t\tif (!$useSceneConfig) {\n\t\t\tpanel -e -l $label $panelName;\n\t\t}\n\t}\n\n\n\t$panelName = `sceneUIReplacement -getNextScriptedPanel \"nodeEditorPanel\" (localizedPanelLabel(\"Node Editor\")) `;\n\tif ($nodeEditorPanelVisible || $nodeEditorWorkspaceControlOpen) {\n"
		+ "\t\tif (\"\" == $panelName) {\n\t\t\tif ($useSceneConfig) {\n\t\t\t\t$panelName = `scriptedPanel -unParent  -type \"nodeEditorPanel\" -l (localizedPanelLabel(\"Node Editor\")) -mbv $menusOkayInPanels `;\n\n\t\t\t$editorName = ($panelName+\"NodeEditorEd\");\n            nodeEditor -e \n                -allAttributes 0\n                -allNodes 0\n                -autoSizeNodes 1\n                -consistentNameSize 1\n                -createNodeCommand \"nodeEdCreateNodeCommand\" \n                -connectNodeOnCreation 0\n                -connectOnDrop 0\n                -copyConnectionsOnPaste 0\n                -connectionStyle \"bezier\" \n                -defaultPinnedState 0\n                -additiveGraphingMode 0\n                -settingsChangedCallback \"nodeEdSyncControls\" \n                -traversalDepthLimit -1\n                -keyPressCommand \"nodeEdKeyPressCommand\" \n                -nodeTitleMode \"name\" \n                -gridSnap 0\n                -gridVisibility 1\n                -crosshairOnEdgeDragging 0\n                -popupMenuScript \"nodeEdBuildPanelMenus\" \n"
		+ "                -showNamespace 1\n                -showShapes 1\n                -showSGShapes 0\n                -showTransforms 1\n                -useAssets 1\n                -syncedSelection 1\n                -extendToShapes 1\n                -editorMode \"default\" \n                -hasWatchpoint 0\n                $editorName;\n\t\t\t}\n\t\t} else {\n\t\t\t$label = `panel -q -label $panelName`;\n\t\t\tscriptedPanel -edit -l (localizedPanelLabel(\"Node Editor\")) -mbv $menusOkayInPanels  $panelName;\n\n\t\t\t$editorName = ($panelName+\"NodeEditorEd\");\n            nodeEditor -e \n                -allAttributes 0\n                -allNodes 0\n                -autoSizeNodes 1\n                -consistentNameSize 1\n                -createNodeCommand \"nodeEdCreateNodeCommand\" \n                -connectNodeOnCreation 0\n                -connectOnDrop 0\n                -copyConnectionsOnPaste 0\n                -connectionStyle \"bezier\" \n                -defaultPinnedState 0\n                -additiveGraphingMode 0\n                -settingsChangedCallback \"nodeEdSyncControls\" \n"
		+ "                -traversalDepthLimit -1\n                -keyPressCommand \"nodeEdKeyPressCommand\" \n                -nodeTitleMode \"name\" \n                -gridSnap 0\n                -gridVisibility 1\n                -crosshairOnEdgeDragging 0\n                -popupMenuScript \"nodeEdBuildPanelMenus\" \n                -showNamespace 1\n                -showShapes 1\n                -showSGShapes 0\n                -showTransforms 1\n                -useAssets 1\n                -syncedSelection 1\n                -extendToShapes 1\n                -editorMode \"default\" \n                -hasWatchpoint 0\n                $editorName;\n\t\t\tif (!$useSceneConfig) {\n\t\t\t\tpanel -e -l $label $panelName;\n\t\t\t}\n\t\t}\n\t}\n\n\n\t$panelName = `sceneUIReplacement -getNextScriptedPanel \"createNodePanel\" (localizedPanelLabel(\"Create Node\")) `;\n\tif (\"\" != $panelName) {\n\t\t$label = `panel -q -label $panelName`;\n\t\tscriptedPanel -edit -l (localizedPanelLabel(\"Create Node\")) -mbv $menusOkayInPanels  $panelName;\n\t\tif (!$useSceneConfig) {\n\t\t\tpanel -e -l $label $panelName;\n"
		+ "\t\t}\n\t}\n\n\n\t$panelName = `sceneUIReplacement -getNextScriptedPanel \"polyTexturePlacementPanel\" (localizedPanelLabel(\"UV Editor\")) `;\n\tif (\"\" != $panelName) {\n\t\t$label = `panel -q -label $panelName`;\n\t\tscriptedPanel -edit -l (localizedPanelLabel(\"UV Editor\")) -mbv $menusOkayInPanels  $panelName;\n\t\tif (!$useSceneConfig) {\n\t\t\tpanel -e -l $label $panelName;\n\t\t}\n\t}\n\n\n\t$panelName = `sceneUIReplacement -getNextScriptedPanel \"renderWindowPanel\" (localizedPanelLabel(\"Render View\")) `;\n\tif (\"\" != $panelName) {\n\t\t$label = `panel -q -label $panelName`;\n\t\tscriptedPanel -edit -l (localizedPanelLabel(\"Render View\")) -mbv $menusOkayInPanels  $panelName;\n\t\tif (!$useSceneConfig) {\n\t\t\tpanel -e -l $label $panelName;\n\t\t}\n\t}\n\n\n\t$panelName = `sceneUIReplacement -getNextPanel \"shapePanel\" (localizedPanelLabel(\"Shape Editor\")) `;\n\tif (\"\" != $panelName) {\n\t\t$label = `panel -q -label $panelName`;\n\t\tshapePanel -edit -l (localizedPanelLabel(\"Shape Editor\")) -mbv $menusOkayInPanels  $panelName;\n\t\tif (!$useSceneConfig) {\n\t\t\tpanel -e -l $label $panelName;\n"
		+ "\t\t}\n\t}\n\n\n\t$panelName = `sceneUIReplacement -getNextPanel \"posePanel\" (localizedPanelLabel(\"Pose Editor\")) `;\n\tif (\"\" != $panelName) {\n\t\t$label = `panel -q -label $panelName`;\n\t\tposePanel -edit -l (localizedPanelLabel(\"Pose Editor\")) -mbv $menusOkayInPanels  $panelName;\n\t\tif (!$useSceneConfig) {\n\t\t\tpanel -e -l $label $panelName;\n\t\t}\n\t}\n\n\n\t$panelName = `sceneUIReplacement -getNextScriptedPanel \"dynRelEdPanel\" (localizedPanelLabel(\"Dynamic Relationships\")) `;\n\tif (\"\" != $panelName) {\n\t\t$label = `panel -q -label $panelName`;\n\t\tscriptedPanel -edit -l (localizedPanelLabel(\"Dynamic Relationships\")) -mbv $menusOkayInPanels  $panelName;\n\t\tif (!$useSceneConfig) {\n\t\t\tpanel -e -l $label $panelName;\n\t\t}\n\t}\n\n\n\t$panelName = `sceneUIReplacement -getNextScriptedPanel \"relationshipPanel\" (localizedPanelLabel(\"Relationship Editor\")) `;\n\tif (\"\" != $panelName) {\n\t\t$label = `panel -q -label $panelName`;\n\t\tscriptedPanel -edit -l (localizedPanelLabel(\"Relationship Editor\")) -mbv $menusOkayInPanels  $panelName;\n\t\tif (!$useSceneConfig) {\n"
		+ "\t\t\tpanel -e -l $label $panelName;\n\t\t}\n\t}\n\n\n\t$panelName = `sceneUIReplacement -getNextScriptedPanel \"referenceEditorPanel\" (localizedPanelLabel(\"Reference Editor\")) `;\n\tif (\"\" != $panelName) {\n\t\t$label = `panel -q -label $panelName`;\n\t\tscriptedPanel -edit -l (localizedPanelLabel(\"Reference Editor\")) -mbv $menusOkayInPanels  $panelName;\n\t\tif (!$useSceneConfig) {\n\t\t\tpanel -e -l $label $panelName;\n\t\t}\n\t}\n\n\n\t$panelName = `sceneUIReplacement -getNextScriptedPanel \"componentEditorPanel\" (localizedPanelLabel(\"Component Editor\")) `;\n\tif (\"\" != $panelName) {\n\t\t$label = `panel -q -label $panelName`;\n\t\tscriptedPanel -edit -l (localizedPanelLabel(\"Component Editor\")) -mbv $menusOkayInPanels  $panelName;\n\t\tif (!$useSceneConfig) {\n\t\t\tpanel -e -l $label $panelName;\n\t\t}\n\t}\n\n\n\t$panelName = `sceneUIReplacement -getNextScriptedPanel \"dynPaintScriptedPanelType\" (localizedPanelLabel(\"Paint Effects\")) `;\n\tif (\"\" != $panelName) {\n\t\t$label = `panel -q -label $panelName`;\n\t\tscriptedPanel -edit -l (localizedPanelLabel(\"Paint Effects\")) -mbv $menusOkayInPanels  $panelName;\n"
		+ "\t\tif (!$useSceneConfig) {\n\t\t\tpanel -e -l $label $panelName;\n\t\t}\n\t}\n\n\n\t$panelName = `sceneUIReplacement -getNextScriptedPanel \"scriptEditorPanel\" (localizedPanelLabel(\"Script Editor\")) `;\n\tif (\"\" != $panelName) {\n\t\t$label = `panel -q -label $panelName`;\n\t\tscriptedPanel -edit -l (localizedPanelLabel(\"Script Editor\")) -mbv $menusOkayInPanels  $panelName;\n\t\tif (!$useSceneConfig) {\n\t\t\tpanel -e -l $label $panelName;\n\t\t}\n\t}\n\n\n\t$panelName = `sceneUIReplacement -getNextScriptedPanel \"profilerPanel\" (localizedPanelLabel(\"Profiler Tool\")) `;\n\tif (\"\" != $panelName) {\n\t\t$label = `panel -q -label $panelName`;\n\t\tscriptedPanel -edit -l (localizedPanelLabel(\"Profiler Tool\")) -mbv $menusOkayInPanels  $panelName;\n\t\tif (!$useSceneConfig) {\n\t\t\tpanel -e -l $label $panelName;\n\t\t}\n\t}\n\n\n\t$panelName = `sceneUIReplacement -getNextScriptedPanel \"contentBrowserPanel\" (localizedPanelLabel(\"Content Browser\")) `;\n\tif (\"\" != $panelName) {\n\t\t$label = `panel -q -label $panelName`;\n\t\tscriptedPanel -edit -l (localizedPanelLabel(\"Content Browser\")) -mbv $menusOkayInPanels  $panelName;\n"
		+ "\t\tif (!$useSceneConfig) {\n\t\t\tpanel -e -l $label $panelName;\n\t\t}\n\t}\n\n\n\tif ($useSceneConfig) {\n        string $configName = `getPanel -cwl (localizedPanelLabel(\"Current Layout\"))`;\n        if (\"\" != $configName) {\n\t\t\tpanelConfiguration -edit -label (localizedPanelLabel(\"Current Layout\")) \n\t\t\t\t-userCreated false\n\t\t\t\t-defaultImage \"\"\n\t\t\t\t-image \"\"\n\t\t\t\t-sc false\n\t\t\t\t-configString \"global string $gMainPane; paneLayout -e -cn \\\"single\\\" -ps 1 100 100 $gMainPane;\"\n\t\t\t\t-removeAllPanels\n\t\t\t\t-ap false\n\t\t\t\t\t(localizedPanelLabel(\"Persp View\")) \n\t\t\t\t\t\"modelPanel\"\n"
		+ "\t\t\t\t\t\"$panelName = `modelPanel -unParent -l (localizedPanelLabel(\\\"Persp View\\\")) -mbv $menusOkayInPanels `;\\n$editorName = $panelName;\\nmodelEditor -e \\n    -cam `findStartUpCamera persp` \\n    -useInteractiveMode 0\\n    -displayLights \\\"default\\\" \\n    -displayAppearance \\\"smoothShaded\\\" \\n    -activeOnly 0\\n    -ignorePanZoom 0\\n    -wireframeOnShaded 0\\n    -headsUpDisplay 1\\n    -holdOuts 1\\n    -selectionHiliteDisplay 1\\n    -useDefaultMaterial 0\\n    -bufferMode \\\"double\\\" \\n    -twoSidedLighting 0\\n    -backfaceCulling 0\\n    -xray 0\\n    -jointXray 0\\n    -activeComponentsXray 0\\n    -displayTextures 0\\n    -smoothWireframe 0\\n    -lineWidth 1\\n    -textureAnisotropic 0\\n    -textureHilight 1\\n    -textureSampling 2\\n    -textureDisplay \\\"modulate\\\" \\n    -textureMaxSize 32768\\n    -fogging 0\\n    -fogSource \\\"fragment\\\" \\n    -fogMode \\\"linear\\\" \\n    -fogStart 0\\n    -fogEnd 100\\n    -fogDensity 0.1\\n    -fogColor 0.5 0.5 0.5 1 \\n    -depthOfFieldPreview 1\\n    -maxConstantTransparency 1\\n    -rendererName \\\"vp2Renderer\\\" \\n    -objectFilterShowInHUD 1\\n    -isFiltered 0\\n    -colorResolution 256 256 \\n    -bumpResolution 512 512 \\n    -textureCompression 0\\n    -transparencyAlgorithm \\\"frontAndBackCull\\\" \\n    -transpInShadows 0\\n    -cullingOverride \\\"none\\\" \\n    -lowQualityLighting 0\\n    -maximumNumHardwareLights 1\\n    -occlusionCulling 0\\n    -shadingModel 0\\n    -useBaseRenderer 0\\n    -useReducedRenderer 0\\n    -smallObjectCulling 0\\n    -smallObjectThreshold -1 \\n    -interactiveDisableShadows 0\\n    -interactiveBackFaceCull 0\\n    -sortTransparent 1\\n    -controllers 1\\n    -nurbsCurves 1\\n    -nurbsSurfaces 1\\n    -polymeshes 1\\n    -subdivSurfaces 1\\n    -planes 1\\n    -lights 1\\n    -cameras 1\\n    -controlVertices 1\\n    -hulls 1\\n    -grid 1\\n    -imagePlane 1\\n    -joints 1\\n    -ikHandles 1\\n    -deformers 1\\n    -dynamics 1\\n    -particleInstancers 1\\n    -fluids 1\\n    -hairSystems 1\\n    -follicles 1\\n    -nCloths 1\\n    -nParticles 1\\n    -nRigids 1\\n    -dynamicConstraints 1\\n    -locators 1\\n    -manipulators 1\\n    -pluginShapes 1\\n    -dimensions 1\\n    -handles 1\\n    -pivots 1\\n    -textures 1\\n    -strokes 1\\n    -motionTrails 1\\n    -clipGhosts 1\\n    -greasePencils 1\\n    -shadows 0\\n    -captureSequenceNumber -1\\n    -width 1349\\n    -height 525\\n    -sceneRenderFilter 0\\n    $editorName;\\nmodelEditor -e -viewSelected 0 $editorName;\\nmodelEditor -e \\n    -pluginObjects \\\"gpuCacheDisplayFilter\\\" 1 \\n    $editorName\"\n"
		+ "\t\t\t\t\t\"modelPanel -edit -l (localizedPanelLabel(\\\"Persp View\\\")) -mbv $menusOkayInPanels  $panelName;\\n$editorName = $panelName;\\nmodelEditor -e \\n    -cam `findStartUpCamera persp` \\n    -useInteractiveMode 0\\n    -displayLights \\\"default\\\" \\n    -displayAppearance \\\"smoothShaded\\\" \\n    -activeOnly 0\\n    -ignorePanZoom 0\\n    -wireframeOnShaded 0\\n    -headsUpDisplay 1\\n    -holdOuts 1\\n    -selectionHiliteDisplay 1\\n    -useDefaultMaterial 0\\n    -bufferMode \\\"double\\\" \\n    -twoSidedLighting 0\\n    -backfaceCulling 0\\n    -xray 0\\n    -jointXray 0\\n    -activeComponentsXray 0\\n    -displayTextures 0\\n    -smoothWireframe 0\\n    -lineWidth 1\\n    -textureAnisotropic 0\\n    -textureHilight 1\\n    -textureSampling 2\\n    -textureDisplay \\\"modulate\\\" \\n    -textureMaxSize 32768\\n    -fogging 0\\n    -fogSource \\\"fragment\\\" \\n    -fogMode \\\"linear\\\" \\n    -fogStart 0\\n    -fogEnd 100\\n    -fogDensity 0.1\\n    -fogColor 0.5 0.5 0.5 1 \\n    -depthOfFieldPreview 1\\n    -maxConstantTransparency 1\\n    -rendererName \\\"vp2Renderer\\\" \\n    -objectFilterShowInHUD 1\\n    -isFiltered 0\\n    -colorResolution 256 256 \\n    -bumpResolution 512 512 \\n    -textureCompression 0\\n    -transparencyAlgorithm \\\"frontAndBackCull\\\" \\n    -transpInShadows 0\\n    -cullingOverride \\\"none\\\" \\n    -lowQualityLighting 0\\n    -maximumNumHardwareLights 1\\n    -occlusionCulling 0\\n    -shadingModel 0\\n    -useBaseRenderer 0\\n    -useReducedRenderer 0\\n    -smallObjectCulling 0\\n    -smallObjectThreshold -1 \\n    -interactiveDisableShadows 0\\n    -interactiveBackFaceCull 0\\n    -sortTransparent 1\\n    -controllers 1\\n    -nurbsCurves 1\\n    -nurbsSurfaces 1\\n    -polymeshes 1\\n    -subdivSurfaces 1\\n    -planes 1\\n    -lights 1\\n    -cameras 1\\n    -controlVertices 1\\n    -hulls 1\\n    -grid 1\\n    -imagePlane 1\\n    -joints 1\\n    -ikHandles 1\\n    -deformers 1\\n    -dynamics 1\\n    -particleInstancers 1\\n    -fluids 1\\n    -hairSystems 1\\n    -follicles 1\\n    -nCloths 1\\n    -nParticles 1\\n    -nRigids 1\\n    -dynamicConstraints 1\\n    -locators 1\\n    -manipulators 1\\n    -pluginShapes 1\\n    -dimensions 1\\n    -handles 1\\n    -pivots 1\\n    -textures 1\\n    -strokes 1\\n    -motionTrails 1\\n    -clipGhosts 1\\n    -greasePencils 1\\n    -shadows 0\\n    -captureSequenceNumber -1\\n    -width 1349\\n    -height 525\\n    -sceneRenderFilter 0\\n    $editorName;\\nmodelEditor -e -viewSelected 0 $editorName;\\nmodelEditor -e \\n    -pluginObjects \\\"gpuCacheDisplayFilter\\\" 1 \\n    $editorName\"\n"
		+ "\t\t\t\t$configName;\n\n            setNamedPanelLayout (localizedPanelLabel(\"Current Layout\"));\n        }\n\n        panelHistory -e -clear mainPanelHistory;\n        sceneUIReplacement -clear;\n\t}\n\n\ngrid -spacing 5 -size 12 -divisions 5 -displayAxes yes -displayGridLines yes -displayDivisionLines yes -displayPerspectiveLabels no -displayOrthographicLabels no -displayAxesBold yes -perspectiveLabelPosition axis -orthographicLabelPosition edge;\nviewManip -drawCompass 0 -compassAngle 0 -frontParameters \"\" -homeParameters \"\" -selectionLockParameters \"\";\n}\n");
	setAttr ".st" 3;
createNode script -n "sceneConfigurationScriptNode";
	rename -uid "3BF99830-4CA3-8936-ABEB-79941C15585D";
	setAttr ".b" -type "string" "playbackOptions -min 1 -max 120 -ast 1 -aet 200 ";
	setAttr ".st" 6;
select -ne :time1;
	setAttr ".o" 1;
	setAttr ".unw" 1;
select -ne :hardwareRenderingGlobals;
	setAttr ".otfna" -type "stringArray" 22 "NURBS Curves" "NURBS Surfaces" "Polygons" "Subdiv Surface" "Particles" "Particle Instance" "Fluids" "Strokes" "Image Planes" "UI" "Lights" "Cameras" "Locators" "Joints" "IK Handles" "Deformers" "Motion Trails" "Components" "Hair Systems" "Follicles" "Misc. UI" "Ornaments"  ;
	setAttr ".otfva" -type "Int32Array" 22 0 1 1 1 1 1
		 1 1 1 0 0 0 0 0 0 0 0 0
		 0 0 0 0 ;
	setAttr ".fprt" yes;
select -ne :renderPartition;
	setAttr -s 2 ".st";
select -ne :renderGlobalsList1;
select -ne :defaultShaderList1;
	setAttr -s 5 ".s";
select -ne :postProcessList1;
	setAttr -s 2 ".p";
select -ne :defaultRenderingList1;
select -ne :initialShadingGroup;
	setAttr ".ro" yes;
select -ne :initialParticleSE;
	setAttr ".ro" yes;
select -ne :defaultRenderGlobals;
	addAttr -ci true -h true -sn "dss" -ln "defaultSurfaceShader" -dt "string";
	setAttr ".ren" -type "string" "arnold";
	setAttr ".dss" -type "string" "lambert1";
select -ne :defaultResolution;
	setAttr ".pa" 1;
select -ne :defaultColorMgtGlobals;
	setAttr ".cfe" yes;
	setAttr ".cfp" -type "string" "<MAYA_RESOURCES>/OCIO-configs/Maya2022-default/config.ocio";
	setAttr ".wsn" -type "string" "ACEScg";
select -ne :hardwareRenderGlobals;
	setAttr ".ctrs" 256;
	setAttr ".btrs" 512;
select -ne :ikSystem;
	setAttr -s 4 ".sol";
relationship "link" ":lightLinker1" ":initialShadingGroup.message" ":defaultLightSet.message";
relationship "link" ":lightLinker1" ":initialParticleSE.message" ":defaultLightSet.message";
relationship "shadowLink" ":lightLinker1" ":initialShadingGroup.message" ":defaultLightSet.message";
relationship "shadowLink" ":lightLinker1" ":initialParticleSE.message" ":defaultLightSet.message";
connectAttr "layerManager.dli[0]" "defaultLayer.id";
connectAttr "renderLayerManager.rlmi[0]" "defaultRenderLayer.rlid";
connectAttr "defaultRenderLayer.msg" ":defaultRenderingList1.r" -na;
connectAttr "pPlaneShape1.iog" ":initialShadingGroup.dsm" -na;
// End of CaveWall.ma
