%YAML 1.1
%TAG !u! tag:unity3d.com,2011:
--- !u!114 &11400000
MonoBehaviour:
  m_ObjectHideFlags: 0
  m_CorrespondingSourceObject: {fileID: 0}
  m_PrefabInstance: {fileID: 0}
  m_PrefabAsset: {fileID: 0}
  m_GameObject: {fileID: 0}
  m_Enabled: 1
  m_EditorHideFlags: 0
  m_Script: {fileID: 11500000, guid: 983f047d043f25f45bcd9cc2c4f06187, type: 3}
  m_Name: Player1Stats
  m_EditorClassIdentifier: 
  playerName: Wii Sports Resort
  isAlive: 1
  playerAbilities:
  - {fileID: 11400000, guid: 75d0b28563a164f41ab92f5bf87fe3d2, type: 2}
  - {fileID: 11400000, guid: 75d0b28563a164f41ab92f5bf87fe3d2, type: 2}
  - {fileID: 11400000, guid: 75d0b28563a164f41ab92f5bf87fe3d2, type: 2}
  playerUI: {fileID: 9011565176115529584, guid: f1084e6ef48b52340916f22e2f6d6627, type: 3}
  totalHP: 100
  currentHP: 100
  hpBar: {fileID: 0}
  totalMP: 100
  currentMP: 100
  totalStr: 100
  currentStr: 100
  totalMag: 100
  currentMag: 100
  totalStrDef: 100
  currentStrDef: 100
  totalMagDef: 100
  currentMagDef: 100
  totalHitRate: 100
  currentHitRate: 100
  totalSpeed: 100
  currentSpeed: 100
  dot: 0
  stunned: 0
  statChange: 0
  hasTurn: 1
  turnTime: 5
  turnTimer: 5
  statisEffectTimer: 0
